^C:\USERS\ALIBA\DESKTOP\OOP I LAB\20_21_FALL_OOP1_152120191012\SRC\OOP_1_LAB_EXPERIMENT_2\OOP_1_LAB_EXPERIMENT_2\SAY_HELLO_WORLD_WITH_C++.CPP
C:\USERS\ALIBA\DESKTOP\OOP I LAB\20_21_FALL_OOP1_152120191012\SRC\OOP_1_LAB_EXPERIMENT_2\OOP_1_LAB_EXPERIMENT_2\DEBUG\VC141.PDB
C:\USERS\ALIBA\DESKTOP\OOP I LAB\20_21_FALL_OOP1_152120191012\SRC\OOP_1_LAB_EXPERIMENT_2\OOP_1_LAB_EXPERIMENT_2\DEBUG\VC141.IDB
C:\USERS\ALIBA\DESKTOP\OOP I LAB\20_21_FALL_OOP1_152120191012\SRC\OOP_1_LAB_EXPERIMENT_2\OOP_1_LAB_EXPERIMENT_2\DEBUG\SAY_HELLO_WORLD_WITH_C++.OBJ
